<?xml version="1.0" encoding="utf-8"?>
<!-- Generator: Adobe Illustrator 23.0.6, SVG Export Plug-In . SVG Version: 6.00 Build 0)  -->
<svg version="1.1" id="Capa_1" xmlns="http://www.w3.org/2000/svg" xmlns:xlink="http://www.w3.org/1999/xlink" x="0px" y="0px"
	 viewBox="0 0 510 510" style="enable-background:new 0 0 510 510;" xml:space="preserve">
<g>
	<g id="flights">
		<path d="M0,255c0-20.4,17.9-38.3,38.3-38.3h140.3L306,12.8h51l-63.8,204h140.3l38.3-51H510L484.5,255l25.5,89.3h-38.3l-38.3-51
			H293.3l63.8,204h-51l-127.5-204H38.3C17.9,293.3,0,275.4,0,255z"/>
	</g>
</g>
</svg>
